snap_org_scraping – Hello, I’m Jae.
…
scan_site_for_snap(
  "https://www.unc.edu/",
  snap_keywords_vec = snap_keywords,
  max_pages = 40
)

Warning in value[[3L]](cond): Request error for URL: https://identity.unc.edu/ - Timeout was reached [identity.unc.edu]:
Operation timed out after 15002 milliseconds with 0 bytes received

Warning in scrape_snap_org(url = current, snap_keywords_vec =
snap_keywords_vec): HTTP error 500 for URL:
https://www.unc.edu/life/about-the-city/

# A tibble: 40 × 11
   url           org_name snap_support_found snap_support_url snap_support_links
   <chr>         <chr>    <lgl>              <lgl>            <lgl>             
 1 https://www.… The Uni… FALSE              FALSE            FALSE             
 2 https://aler… Alert C… FALSE              FALSE            FALSE             
 3 https://www.… The Uni… FALSE              FALSE            FALSE             
 4 https://www.… The Well FALSE              FALSE            FALSE             
 5 https://www.… About t… TRUE               FALSE            FALSE             
 6 https://www.… Alumni   FALSE              FALSE            FALSE             
 7 https://www.… Carolin… TRUE               FALSE            FALSE             
 8 https://iden… <NA>     FALSE              FALSE            FALSE             
 9 http://uncne… Home     FALSE              FALSE            FALSE             
10 https://www.… Frequen… FALSE              FALSE            FALSE             
# ℹ 30 more rows
# ℹ 6 more variables: snap_support_body <lgl>, current_path <chr>,
#   matched_keywords <chr>, matched_link_hrefs <chr>, matched_link_texts <chr>,
#   status_code <int>
…
